Survey Data Harmonization • eurobarometer
…
Let’s repeat the same harmonization for all trust variables.

hZA7576 <- hZA7576 %>%
  mutate_at (vars (starts_with("trust")), harmonize_trust )
hZA6863 <- hZA6863 %>%
  mutate_at (vars (starts_with("trust")), harmonize_trust )

hZA6863 %>%
  select ( all_of(c("trust_army", "trust_european_union")))
#> # A tibble: 50 x 2
#>                  trust_army     trust_european_union
#>                <retroh_dbl>             <retroh_dbl>
#>  1     1 [trust]                1 [trust]           
#>  2     0 [not_trust]            1 [trust]           
#>  3 99997 (NA) [do_not_know] 99997 (NA) [do_not_know]
#>  4     0 [not_trust]            1 [trust]           
#>  5 99997 (NA) [do_not_know]     1 [trust]           
#>  6     0 [not_trust]            0 [not_trust]       
#>  7     1 [trust]            99997 (NA) [do_not_know]
#>  8     1 [trust]                1 [trust]           
#>  9     1 [trust]                0 [not_trust]       
#> 10     1 [trust]                1 [trust]           
#> # ... with 40 more rows
…
