Create A Skeleton Survey — panel_create • eurobarometer
…
    Examples

data (ZA7576_sample)
data (ZA6863_sample)
data (ZA5913_sample)

survey_list <- list ( 'ZA7576_sample' = ZA7576_sample,
                      'ZA6863_sample' = ZA6863_sample,
                      'ZA5913_sample' = ZA5913_sample)

panel_create (survey_list, id_vars =c("uniqid", "doi") )
#> # A tibble: 16,491 x 3
#>    panel_id                         uniqid    doi                
#>  * <chr>                            <chr>     <chr>              
#>  1 1_200000291_doi_10_4232_1_13393  200000291 doi:10.4232/1.13393
#>  2 2_200000299_doi_10_4232_1_13393  200000299 doi:10.4232/1.13393
#>  3 3_200000313_doi_10_4232_1_13393  200000313 doi:10.4232/1.13393
#>  4 4_200000314_doi_10_4232_1_13393  200000314 doi:10.4232/1.13393
#>  5 5_200000326_doi_10_4232_1_13393  200000326 doi:10.4232/1.13393
#>  6 6_200000330_doi_10_4232_1_13393  200000330 doi:10.4232/1.13393
#>  7 7_200000333_doi_10_4232_1_13393  200000333 doi:10.4232/1.13393
#>  8 8_200000362_doi_10_4232_1_13393  200000362 doi:10.4232/1.13393
#>  9 9_200000365_doi_10_4232_1_13393  200000365 doi:10.4232/1.13393
#> 10 10_200000374_doi_10_4232_1_13393 200000374 doi:10.4232/1.13393
#> # ... with 16,481 more rows
…
